project
…
"CA","TX","NY" cities

# Now, I looked into the city specifically in state "CA", "TX", "NY". For "CA" state, the city - San Francisco, Los Angeles and San Diego are the most popular cities in data analyst job positions. For "TX", the city - Austin, Houston, Dallas. For "NY", the city - New York, Brooklyn and Lake Success are the popular cities. 
#It makes sense that the big cities per state have more job openeings than small cities. 

 #CA
newdata %>% group_by(State,City) %>% filter(State == " CA") %>% select(City,State,Job.Title) %>%
  summarise(city_job_listings =n()) %>% arrange(-city_job_listings)

## `summarise()` regrouping output by 'State' (override with `.groups` argument)

## # A tibble: 74 x 3
## # Groups:   State [1]
##    State City          city_job_listings
##    <chr> <chr>                     <int>
##  1 " CA" San Francisco               119
##  2 " CA" Los Angeles                  80
##  3 " CA" San Diego                    62
##  4 " CA" San Jose                     38
##  5 " CA" Santa Clara                  22
##  6 " CA" El Segundo                   19
##  7 " CA" San Mateo                    18
##  8 " CA" Burbank                      17
##  9 " CA" Sunnyvale                    16
## 10 " CA" Mountain View                15
## #  with 64 more rows

#TX
newdata %>% group_by(State,City) %>% filter(State == " TX") %>% select(City,State,Job.Title) %>%
  summarise(tx_job_listings = n()) %>% arrange(-tx_job_listings)

## `summarise()` regrouping output by 'State' (override with `.groups` argument)

## # A tibble: 30 x 3
## # Groups:   State [1]
##    State City        tx_job_listings
##    <chr> <chr>                 <int>
##  1 " TX" Austin                   81
##  2 " TX" Houston                  72
##  3 " TX" Dallas                   66
##  4 " TX" San Antonio              45
##  5 " TX" Irving                   29
##  6 " TX" Plano                    28
##  7 " TX" Fort Worth               16
##  8 " TX" Richardson               10
##  9 " TX" Arlington                 8
## 10 " TX" Pearland                  5
## #  with 20 more rows
…
Job Title List

#Now, I anlyzed the job title list in the dataset and  got top 10 in job title list. I am curious of which job title is popular in the Data Anlyst Jobs .  

Job_title_list <- newdata %>% group_by(Job.Title) %>% summarize(Number_of_job_title = n()) %>%
  arrange(-Number_of_job_title)

## `summarise()` ungrouping output (override with `.groups` argument)

Job_title_list

## # A tibble: 1,272 x 2
##    Job.Title               Number_of_job_title
##    <fct>                                 <int>
##  1 Data Analyst                            405
##  2 Senior Data Analyst                      90
##  3 Junior Data Analyst                      30
##  4 Business Data Analyst                    28
##  5 Sr. Data Analyst                         21
##  6 Data Analyst II                          17
##  7 Data Analyst Junior                      17
##  8 Data Quality Analyst                     17
##  9 Data Governance Analyst                  16
## 10 Lead Data Analyst                        15
## #  with 1,262 more rows
…
Company list in Job.title = Data Analyst

#I tried to get the company list in job title "Data Analyst" and I got top 5 company list and Itll be helpful to find company information easily for applying "Data Analyst" positions. 

Company_list <- newdata  %>% filter(Job.Title == "Data Analyst") %>% group_by(Company.Name) %>% summarize(Number_of_posting = n()) %>%
  arrange(-Number_of_posting)

## `summarise()` ungrouping output (override with `.groups` argument)

Company_list

## # A tibble: 343 x 2
##    Company.Name                            Number_of_posting
##    <fct>                                               <int>
##  1 "Staffigo Technical Services, LLC\n5.0"                20
##  2 "Diverse Lynx\n3.9"                                     6
##  3 "Kforce\n4.1"                                           5
##  4 "Robert Half\n3.5"                                      5
##  5 "Lorven Technologies Inc\n4.0"                          4
##  6 "Artech LLC\n3.9"                                       3
##  7 "Collabera\n4.1"                                        3
##  8 "Randstad\n3.7"                                         3
##  9 "RGP\n4.1"                                              3
## 10 "Andiamo\n3.5"                                          2
## #  with 333 more rows
…
Data Analyst + City

#Im looking for the data analyst in the top_10 cities. Top three rank city is NY, Chicago, SF it is different from the job posting location distribution. Top rank in job posting location is CA , TX, NY but for the data analyst job is New York and Chicago and San Francisco.

Data_Analyst_job <- newdata %>% filter(Job.Title == "Data Analyst") %>% group_by(City,Job.Title) %>% select(City,Job.Title)
Data_Analyst_job

## # A tibble: 405 x 2
## # Groups:   City, Job.Title [109]
##    City      Job.Title   
##    <chr>     <fct>       
##  1 New York  Data Analyst
##  2 New York  Data Analyst
##  3 New York  Data Analyst
##  4 New York  Data Analyst
##  5 Fairfield Data Analyst
##  6 New York  Data Analyst
##  7 New York  Data Analyst
##  8 New York  Data Analyst
##  9 New York  Data Analyst
## 10 New York  Data Analyst
## #  with 395 more rows
…
